replay_onsets,replay_onsets_mean
0.0,0.0
0.0,0.0
0.0,0.0
0.0,0.0
1.9885905267652672e-06,6.125081138259468e-05
0.0053296560226073104,0.006919090409723955
0.041674271453784974,0.04225290045972088
0.09342539410217301,0.09288698287262317
0.13654752209348914,0.13564278459715362
0.15926537789982573,0.15842881189411273
0.1639238697821625,0.1639785290970639
0.1684997889676083,0.16869552317750308
0.17521362280497388,0.17433514506394088
0.1608021792636946,0.15922006074536935
0.11193727883742,0.11179933210644709
0.053850089947965744,0.05477070135902196
0.011298989747841659,0.012275002959651372
-0.0093002604173633,-0.00756113366665334
0.008147251900282298,0.00940843924922983
0.054688047556539075,0.054276979921305236
0.09846030663098854,0.0980817327688964
0.13628928422190686,0.1359214206053732
0.16809762612587525,0.16737852957183455
0.1858091456023896,0.1862097861115088
0.2062642098602271,0.2057003343956192
0.2108330686848875,0.20831690641123668
0.16277517266419894,0.16169473064014933
0.088666416811533,0.08962053447516061
0.028364396385135195,0.029707245379650048
-0.001796065538985846,0.00031764556363269474
0.013829903435799382,0.01534107707552105
0.06255767299176264,0.062439625528146345
0.11064319241982411,0.1096632027275035
0.1400374904196023,0.13934726065745867
0.15464465535451088,0.15445049922121823
0.16551285905357724,0.16542113211808734
0.17336952377363493,0.17266545312557602
0.16232904162479395,0.1607886055919453
0.11613380769527036,0.11584761680649192
0.05759520065654498,0.058475409116726745
0.013413044543740885,0.014421885741175412
-0.005168686152634178,-0.0035713366448008074
0.01354131617588977,0.014686835020304252
0.06005345719086841,0.05971825025032934
0.10579138396433631,0.10534321360291408
0.14278624349013308,0.14192470814606228
0.16113384011937035,0.16039734513293927
0.16154158053866435,0.1612401112906733
0.15578792059418753,0.15586001584056688
0.14640277291542744,0.14507401240662068
0.1081712743262204,0.10772545494052306
0.05509278639935991,0.055656361567075104
0.013536348563434985,0.014447297752529243
-0.002252428156280647,-0.00011596401185445664
0.028620065062192765,0.029527642259669
0.08423195192633395,0.08359282216162728
0.13276914896405406,0.1323465742093414
0.16886716498589024,0.16784696773548163
0.18366180516050393,0.18317145963385276
0.18542507412055484,0.1849658106106544
0.17762504273499724,0.17780483257196766
0.1665080572240784,0.16504686898443655
0.12613656606955648,0.12530340604413173
0.06655686839428608,0.0673202336376414
0.018052775048899447,0.019106896930593257
-0.009375500417464686,-0.0081280482519902
-0.006866173593583557,-0.005156800650465123
0.03298622457925998,0.033409482034238894
0.08405822106721243,0.08380771634020967
0.13317394109390085,0.13225454993952498
0.16591364804883987,0.16478714150695928
0.17494187245682533,0.17456068923116488
0.17448084016713214,0.17441101827027436
0.1703131657941348,0.1694694814196784
0.14539416817441872,0.14422087247850726
0.09203471233995339,0.09227221283920582
0.0378065112647601,0.038635705907022616
0.00192727408418314,0.0031363984930209724
-0.0031822829829273804,-0.0014538582590085248
0.031039013685626612,0.031520071276221924
0.08071666191613425,0.08008580740143095
0.12218604243656198,0.12156892417622342
0.14988129167475245,0.14939140850065066
0.16535684498040273,0.1650383456637859
0.17439363117460596,0.17409863504793208
0.17486689791860477,0.1735166276087788
0.1443884248217468,0.14315823473483394
0.08708927276214609,0.08730690135907801
0.03345899666737953,0.034494258348366495
-0.0006534239509987292,0.000512840217308286
-0.006034664774459263,-0.00424847817704106
0.03229577993682051,0.03377197499408787
0.10114384867374158,0.10021919372470706
0.1521291764452428,0.15073613158647087
0.17347299162168717,0.17262235777707066
0.17576379993849595,0.17555140081201245
0.17349202110548687,0.17375146887942042
0.17468002952213613,0.17371720946265695
0.15337620365028196,0.15182611348202926
0.09930401783219012,0.09923252581343345
0.042209914992410155,0.04323399320764926
0.004195921154434371,0.005963294419776913
0.006802412016913353,0.008878991814200429
0.0563345006176516,0.05631863188478028
0.10853923561064496,0.10769825645121982
0.14372050215555604,0.14316103679834993
0.16521185990574827,0.1642632627548046
0.17058084804096155,0.1711071319058153
0.185558367637383,0.18577776103233667
0.2025758543375926,0.200699876045785
0.178551655829693,0.17682970805436055
0.11222681302812258,0.11261014138593822
0.04626506213292221,0.047509656974376764
0.003262796190075209,0.004196321420156003
-0.017969747821814912,-0.017396208284106925
-0.025030652040257104,-0.02469761130273753
-0.024146111775120303,-0.024006096114869813
-0.019511557252991897,-0.019495496090029308
-0.01391083236616215,-0.01394099081703952
-0.008952759738416265,-0.009005586970898875
-0.005261008514831778,-0.0053262946770654615
-0.002858870590795182,-0.0029067991046762697
-0.0014460892793164409,-0.0014766254972006462
-0.000678579545465334,-0.0006953217241056675
-0.00029989638248308304,-0.0003047416823931329
0.0016927475902613679,0.002747383766573369
0.027989937538080663,0.02920788479149377
0.08262930865825893,0.08197530519373195
0.1314411030122254,0.13095966806220752
0.1681174978174053,0.1673096033154383
0.1854509010453282,0.18450208195122975
0.18213490624278966,0.1822280239963645
0.17879043307900305,0.17897245696499103
0.17534130697708192,0.17368707485088714
0.13815179421281054,0.137103763271094
0.07688237449357037,0.07757873234614963
0.024719771800434102,0.025840528482138643
-0.00304749462954728,-0.0012385703164769155
0.008098996329367237,0.009341157064069497
0.04861434120317512,0.048935104520971974
0.09733889915556321,0.09681387920869833
0.13842318440133014,0.13740642312268328
0.15917825274989947,0.15821970337610294
0.15897605464114262,0.15876787447947585
0.15332049945079826,0.15332751515217247
0.14341179355240435,0.142151054310759
0.1058716189163298,0.10544382858127364
0.05403982408056178,0.054760476552179575
0.013329315549998697,0.0142234428652607
-0.0037627949704072757,-0.0017636152904560397
0.022850072388692244,0.023837221360254835
0.07630824307681665,0.07570188882656599
0.12145538344373988,0.12036025314103917
0.14506538518927276,0.14446453809682527
0.15476982564950661,0.1545962260321321
0.15918441020973628,0.15906983179824538
0.1616188684979332,0.16130247899402692
0.1532727994636691,0.1517290433680522
0.11075722172138487,0.11020387144435012
0.05497451834190498,0.05560490175223203
0.01270000376683421,0.013734850932748465
-0.005150670838519649,-0.0032642266107540422
0.018830885047396103,0.019986483373250284
0.07194783808458438,0.07168897912276384
0.12257938734274275,0.12190061579234424
0.15651242987355912,0.15532240673065348
0.16614499999360022,0.16569018744440506
0.16430932923187247,0.1643023458679532
0.16061991017946908,0.16030406111297127
0.14673401275266562,0.14537468198299552
0.1041187933800492,0.10386545625947705
0.050602449496981484,0.051413956575326394
0.010496774072729524,0.011745742478406276
0.0010409787465427934,0.0038921373168891815
0.04944535794057196,0.04992520137434138
0.11309948716065521,0.11182457187446027
0.15387758811118404,0.1528990476844125
0.17408810073372605,0.17332749668473393
0.17860180115405347,0.1784023485690077
0.17643900715813707,0.17624439719512924
0.16876895018099589,0.1679323315954217
0.14022726837988586,0.13920429848293334
0.0862388757276692,0.0865578098399666
0.03342270558357781,0.034260396000269824
-0.0006105309597236706,0.0007265189489537718
-0.0016121496535795718,0.00014527487184923544
0.03894629449975193,0.039515537856413874
0.09523336186860817,0.09418657641859543
0.13540188247662532,0.13469149502844707
0.1595686715510042,0.15922438278696593
0.17344264834817977,0.1727543058820293
0.17273318194446374,0.17226603444982796
0.16039689322138073,0.15965878534356243
0.13020753406676433,0.12917878995181034
0.07849151418005343,0.07864705697582922
0.029340990031103267,0.03028452452155254
-0.0016588136319098984,-0.00021976374645618635
0.0008868216127563965,0.0029234318617236007
0.045882143202647135,0.04616678434457126
0.09914928885312392,0.09814865658501325
0.13578422900007736,0.1353517603509185
0.16223564141867391,0.16160148476302316
0.17635722823634037,0.1758370802491308
0.1794955429614853,0.17938778730408725
0.17698086078895595,0.17573448857549548
0.14599964603969137,0.14493269993229632
0.08757131862987293,0.08803206563138839
0.03293320130491559,0.03383764987800807
-0.0016411405538121013,-0.0006771104415064491
-0.00964755516788061,-0.007878442678694645
0.021063044723744904,0.021445053798384725
0.06728771830840274,0.0670961143335008
0.11359219750578986,0.11302241558347584
0.14737830538930938,0.14661972304935667
0.16377118424047465,0.16346781506153094
0.171919982261451,0.17144987417571944
0.17000110414182754,0.1693161131795015
0.14917904441905006,0.1477952138206968
0.09946224356530317,0.09928874018379027
0.04471106502803966,0.04563936592028251
0.006210116827267477,0.007174945361532443
-0.008635673903915416,-0.006756308549727805
0.017344455415469993,0.01853681780017685
0.07012691694308248,0.06986894295022116
0.11846856510951649,0.1174343451276656
0.14634139707436267,0.14543425904014393
0.1571092793105844,0.15708901163873662
0.16605109137128843,0.16578120096460838
0.16882796940816883,0.1682592492810033
0.1555549425929187,0.15423082892580062
0.11188941503017602,0.11158473855353584
0.056108078021273364,0.056919978412360135
0.013355061406435288,0.014190735610578192
-0.010363493666131797,-0.009780334644586833
-0.019860684929623153,-0.01950074229869893
-0.020991604757347206,-0.020825800201472004
-0.017916275562004803,-0.017873171623628715
-0.01335470651045001,-0.013363861751872505
-0.008947825737210802,-0.008987880646377554
-0.005465700893723181,-0.005524258442861314
-0.0030762477473931186,-0.0031208200183828567
-0.0016050664362819644,-0.0016368194575315167
-0.0007817551190866297,-0.0007983478577165685
-0.00035592672243612563,-0.0003642794825701343
-0.00014168413013915037,-0.00011129928615053142
0.003123211046095088,0.004089177911337503
0.02778736470353953,0.028657116974801715
0.07451980958341112,0.07442532763104356
0.12032917000161336,0.11965979055814055
0.15139236628040176,0.15087848803792456
0.17134888176713126,0.17066161101212604
0.17672863768843738,0.17601705522418284
0.1664724271926173,0.16647564090186873
0.15091505588784518,0.1498436320405257
0.1130816472990413,0.11258166834122219
0.05990947791867046,0.060580861756750586
0.016554466057755617,0.017623619036488836
-0.0012994764069743162,0.0008069764336245969
0.02539308280646605,0.026378251000468873
0.07655158172228295,0.07608168217381547
0.1221034012296505,0.1211314694605336
0.14888669102779362,0.14819373721351073
0.1610635925768913,0.1606687349358619
0.1639697447776493,0.1637402145647744
0.160463423253618,0.15993900185714782
0.14187442291422678,0.14069992314962604
0.09587159508068334,0.09583699413179016
0.04365381553290609,0.04434967496660322
0.006554981050344938,0.00776660342355079
0.000660104725194694,0.0024563189044044496
0.03624375738537128,0.03664235106559848
0.08711683341648363,0.08656249350001757
0.12930700427040903,0.128186728078841
0.14787222324388272,0.1472838616903173
0.15345629863774143,0.1537514595625844
0.16331105550337124,0.16275342743151838
0.16183443991831267,0.16067180342102186
0.1322907743248658,0.13124742859649133
0.08006318304703337,0.08024245563745554
0.03090177137405864,0.031838609479914966
3.0449161807627673e-05,0.0014836988236093995
0.001393635071958099,0.0029287587926395903
0.038509267713419976,0.03903998247061919
0.08866257699505385,0.0882476838696867
0.13000173067783935,0.12911032106519768
0.15352578979260534,0.15288788160639286
0.16235067858032037,0.1620099719801416
0.16408998639893185,0.16416655711688302
0.16477174234102465,0.16365737756300566
0.14064885132993363,0.13944974862249737
0.08701311861660443,0.08734088206178392
0.03440272219279922,0.03540356439725883
0.0005900030100107729,0.001722113148315195
-0.004719838572139959,-0.0029688963513544203
0.02806172235032561,0.0284673101199245
0.07573175649102794,0.07517484829642408
0.11600757905760842,0.11525800671873533
0.14280682934790967,0.14246116505042475
0.15962910967695915,0.15910556159702793
0.1645879868220991,0.164261379357331
0.1602386810147172,0.15925611732789377
0.13248592596432693,0.13152896245953186
0.08039312210115648,0.08056285197137007
0.030894003888434544,0.031673679153189145
-0.0008388449275039409,5.040972186773843e-05
-0.010748138132801295,-0.009067199510831514
0.01756998469817366,0.01853373771636331
0.07169262009458498,0.07121102255098563
0.11744674773714213,0.11676650604240231
0.14747778694221564,0.14677039902782432
0.16271604754415459,0.16213380541244712
0.1651613207846998,0.16501659006974
0.16342017889761773,0.16293020951887685
0.14814036568494482,0.14671643804526
0.10251213808872428,0.10238143262236576
0.04831965693687546,0.049188243656160834
0.008842212052772554,0.009752180586424282
-0.011498838262442237,-0.010229627106585778
-0.0020671382924571046,-0.0005348018189626304
0.04183221905495528,0.04202227272604007
0.09670534498019928,0.0960907206474194
0.14230178625085382,0.14189032428851753
0.18193341576399635,0.1817551246724443
0.21659093647850236,0.21544325303876863
0.22537303814538306,0.22460603448520083
0.21419063502173827,0.21316464706263216
0.17675861936232434,0.175536016091917
0.10860829635707676,0.10878016204735408
0.04286843094732752,0.04388084405924114
0.0010060112999475002,0.002708075614817021
-0.0032423251505217026,-0.001465725738886021
0.03366291559965145,0.03401543077904055
0.08363872446118167,0.08310212738497424
0.12229013407643527,0.12172143033805512
0.14670417613945527,0.1459974045704324
0.15749567798270753,0.15724383903471545
0.1611295776571826,0.16076011862462636
0.15423924113385773,0.15300869068171905
0.1210357809688078,0.12017087619925604
0.0682919971860292,0.06884908674232794
0.022533832475448226,0.023486817809338492
-0.002623887656472523,-0.0009354724518164528
0.008712970528144846,0.009919022067380743
0.047844650682827075,0.04808557011204118
0.09255712422545914,0.09194935311031305
0.1290419315219591,0.1287226246592433
0.1578699509906168,0.1570614552354566
0.17005991511602508,0.16937891523984824
0.16659611770217636,0.1662545971010121
0.15169040206249143,0.1505911142327973
0.11143155122708776,0.11104085138954997
0.05782157264606678,0.05853942745124666
0.015175947374188977,0.015988145276764003
-0.009065530002420233,-0.008478016164201534
-0.019016469156506524,-0.018647302530987897
-0.020453617097854836,-0.020283815556728098
-0.01761335819408608,-0.017566757722262162
-0.013220466717701738,-0.013226779420299326
-0.008916163597997765,-0.008953924370203736
-0.005485770146990975,-0.005540918838809192
-0.00310558580692678,-0.003151503555179603
-0.0016334395807323242,-0.0016642975861991933
-0.0008001693267903177,-0.0008163703260046632
-0.0003631109172334833,-0.0003708679554120209
-0.00015071581361603072,-0.00015479384992254613
-4.353664376229365e-05,8.320148497564807e-05
0.007155973307904436,0.008467448053229215
0.043660562035219695,0.044497724843429856
0.09840162479038331,0.09794928719306194
0.14755548613825473,0.1469747056832571
0.1848738656061499,0.18362562540367855
0.19770182825331833,0.19706025127116136
0.19448624947923657,0.1940227635856832
0.18143251271303923,0.18124440490694566
0.1593831918580837,0.15822892776670935
0.11093918751401485,0.11075340453254547
0.052859132764585155,0.053755814268461335
0.009764255339099654,0.010842328705341889
-0.0032984425183630074,-0.00016567483536250016
0.049124075646984955,0.049918614610299616
0.12672095199922456,0.12480734760860066
0.17135192974980928,0.17015846036151577
0.18855261855518268,0.18787023867171615
0.19059730011019488,0.1904985534310305
0.19032268355252113,0.19025297319649082
0.18729809541973713,0.1863905641448157
0.1613077874251996,0.16002354031476645
0.10434686874301483,0.10426072042017821
0.0443423785639996,0.04500508026125287
0.003327949516848115,0.004180229651545491
-0.017316283010965744,-0.01669574976558283
-0.02416098707892512,-0.02383706261865193
-0.02332606029745426,-0.023179515580749235
-0.018933035845063055,-0.018897999053480646
