replay_onsets,replay_onsets_mean
0.0,0.0
0.0,0.0
0.0,0.0
0.0,0.0
2.129277114535988e-06,6.270573432171089e-05
0.004883071766692148,0.0063344152320346896
0.0391817609886124,0.03988581507904846
0.08935522169062407,0.08862943938834436
0.1287545529688844,0.12813922707923758
0.15341719109682728,0.15267393673409368
0.16063651526466333,0.1602329580312001
0.16162451803635108,0.16257943812920586
0.17741583175066522,0.1766066313448345
0.1737584944376197,0.17171132034086672
0.12563622519755915,0.12529710788508922
0.06306620643074302,0.06402020370306578
0.016068308921418497,0.017117747615127583
-0.008652430604361197,-0.0072990535169878655
-0.00013930861761276848,0.0017161925897848588
0.04819693809323974,0.04805118000114423
0.10000063790320864,0.09900758596006895
0.13412938039396705,0.13353359308372661
0.1553049978255894,0.15465160618850338
0.16155583842462068,0.16096450373152663
0.15551274792226724,0.1556290030751686
0.14776233352312568,0.14668425191295786
0.11782104422382074,0.11688813341425139
0.06707284776909667,0.06757971892135425
0.022188778852397305,0.02311051581468535
-0.004776158068641756,-0.0036673139702243056
-0.004144191182957752,-0.002097663053829413
0.040509535020467544,0.04111029457530629
0.099295567295663,0.09803121477602529
0.13627800827011752,0.1353687155768921
0.15504962473773312,0.15456520746857286
0.16262851389637561,0.16241038091210108
0.16474295609501335,0.16480452418161928
0.1673214221834129,0.16649534158731372
0.14977337679400884,0.148347318636816
0.09888977062768149,0.0989670551327517
0.04335154161009674,0.044154881535999835
0.005220949302768561,0.006283866638856769
-0.004515873161340462,-0.002609408736216268
0.028017273221546988,0.0286571615217065
0.08085972904388826,0.08026045893219072
0.12558497403409868,0.1248164400049005
0.15343323484386207,0.15287845631026684
0.16787962980698096,0.16742782057334266
0.17117169046260103,0.1708855197877751
0.16722483968847326,0.16660630118513864
0.14632986915795562,0.14509654454009246
0.09645750382557365,0.09630972089975291
0.04225500012317452,0.043000493157012216
0.004671404041564247,0.005566270547639512
-0.013632286278823342,-0.012297763643629459
-0.0010052306326169818,0.0005000572617257143
0.04648454186079179,0.046407426425780156
0.09464004344335923,0.0938990363950577
0.12591044088885311,0.12519688769486323
0.1428255743318531,0.142500632961406
0.1522757594060005,0.1519647633254368
0.156010389610625,0.15612560326434838
0.15861194010921417,0.15748098223368448
0.1364694847829058,0.1352478606088031
0.08440129263613612,0.08472840187531622
0.033404402576489314,0.03438078797461106
0.0007521961929248061,0.0018304720826554936
-0.0042319796208006265,-0.002445625479000124
0.029228888574286262,0.029448439316492398
0.0751740656372214,0.07485849398836932
0.11728624176190973,0.11669254803381877
0.14830231385913514,0.14748954828009028
0.1619360420218401,0.16149135172517343
0.1656660581944893,0.16567768865927968
0.1667523662036698,0.16555246891738398
0.14088762585353004,0.13974726896161416
0.08642721046508567,0.08657986861946072
0.03394536468597291,0.03476897347072948
0.0006241565567521215,0.001954287552353845
-0.0009175922135084704,0.0009638060775207214
0.041207178810883496,0.04179339600304039
0.10186347170797624,0.10109339591169414
0.14713393483579207,0.1461264237410981
0.16821719667166263,0.1674056516614287
0.17211633496130196,0.17198902525581652
0.17152136172730842,0.17126119272276924
0.16352399347999608,0.16238174981934494
0.13059793126372177,0.12962036116226053
0.07593986015947482,0.0764372978655154
0.026589921964165035,0.027574766330240252
-0.0034342363434509836,-0.0021054410094520012
-0.0014962403640016659,0.0006098013579355408
0.044824940583873575,0.045196131077355955
0.10183052857475736,0.10091793022817465
0.14230406843111085,0.1412788173019304
0.16096576691132902,0.16016609565033987
0.16164838298217724,0.16143479840124098
0.15650485196800834,0.1565746895567458
0.15028355359348872,0.14927358222900808
0.12275268200553571,0.12170728623192471
0.07216275347409727,0.0725884943972824
0.02550641472430433,0.026438679201838153
-0.0026347355971924257,-0.0011780591103850995
0.0026082944960919125,0.004444084296272683
0.04743224974785767,0.04761127020216815
0.09827934484646755,0.09728921185152072
0.13086920251920206,0.13022128266444943
0.14909556442841976,0.14856186460920276
0.15679558055537407,0.15679711265757118
0.162255294374157,0.16190568132901356
0.15912698167056197,0.157900880871846
0.12768472928022506,0.1268694639735047
0.07419863632919596,0.07470354003742798
0.026282803480444896,0.027103745168125283
-0.003352081448219049,-0.0026896805110688256
-0.01700836408991111,-0.016562054537864742
-0.020586733988998195,-0.020364797091354477
-0.01877009205857024,-0.018690120703522762
-0.014652880759484574,-0.01464118572063921
-0.010194614516473074,-0.010225623590892772
-0.006441790729983178,-0.006497518178970277
-0.003730510835855593,-0.003780200631735845
-0.0020003229287641104,-0.002036101982856195
-0.0010009663601536528,-0.0010200837646074385
-0.0004668306010165956,-0.00047692422986977154
-0.0001991731673612794,-0.00018868969594506752
0.004554542580059136,0.006371779576196463
0.04685150633296986,0.04752040442606998
0.10960565391796206,0.10852168999206749
0.15060792470242598,0.14946580455933103
0.16413663421183697,0.16352301702924277
0.16364434759650215,0.16384475009826913
0.16651773760542052,0.16677920518320635
0.1750562122333493,0.1749351690060568
0.17712454955964363,0.17544028292138253
0.14315038687169618,0.14214520874544817
0.08199369613420672,0.08262986760664383
0.028366988381284618,0.029465989827108935
-0.002781771555368436,-0.0010171426714752898
0.005522586379036014,0.007175313843187096
0.05025141424170426,0.04984790451667258
0.09298819529766394,0.09239299587268862
0.12435336845927597,0.12387340624383218
0.14683200571067212,0.14650212075895205
0.16065888906417433,0.16014459309709633
0.16304054777566038,0.1625389605576907
0.15136830573249427,0.15029480491293498
0.11439337040057486,0.1138947835345426
0.06206639180432601,0.06250640320206881
0.01862339544519698,0.019392362567549608
-0.006834135653455538,-0.005856358544715961
-0.00735714258543493,-0.005588368431302841
0.031790573357854,0.03234205114439236
0.0887292974921312,0.08829417646750447
0.1374544496723268,0.1366914986190726
0.16783898268845235,0.1668926498344981
0.178491088470725,0.1779673574995117
0.17784637681008697,0.17760322873256387
0.1694329599536007,0.16843422483770518
0.1385104037042086,0.13743052298354863
0.08389970051732794,0.08428657030313096
0.032014285222430744,0.033006169400588266
-0.0013147294326719824,-0.00023356058759037705
-0.007931576573710273,-0.0060634935453187135
0.026747898538257094,0.02769532116099957
0.08414164957081066,0.08348589980392207
0.1325158697856652,0.13139999161024038
0.15804880198750015,0.15719706532442046
0.16574252664175362,0.16554324007638394
0.16879432448294454,0.16886172500805294
0.1710752762762186,0.17014746777057368
0.15136833743113118,0.14999449787707866
0.09906036157528766,0.09918063920087043
0.043044846895790745,0.04386126359594083
0.004715351851258463,0.005523080374967869
-0.012124219599479874,-0.010467520452743349
0.007963378338047531,0.009326189238172352
0.0639412733900051,0.06388793640135798
0.12346797353414875,0.12216687452023806
0.156955850707728,0.1564425687731064
0.17507839029263297,0.174388222462389
0.1802928940484463,0.18022986956680148
0.18173728801777342,0.18121686245385346
0.16888572030866242,0.16729334122835526
0.12277666947920693,0.12218312454113135
0.06244293830003117,0.06329976386388773
0.015633009589228728,0.016666254341373907
-0.00978491986429759,-0.008282797947528005
-0.0002932424600991291,0.0018412311119112338
0.054240766708840954,0.054408548841146646
0.11304536346030482,0.1112675244278788
0.13929809489339087,0.13887025751363627
0.15288622998836868,0.1531581100528096
0.16935913010968495,0.1687712790729591
0.1736168981004445,0.1730031820233071
0.1636748626147628,0.16304873578880152
0.13652675451532462,0.13553349324179495
0.08507215722076605,0.0851308781812829
0.03385668224943229,0.03462852434620358
0.00030012067280634207,0.0015774552826781653
-0.0032933112357033775,-0.0013473536614899127
0.03955639802099935,0.04044363847543448
0.1068584480436171,0.10592292439016614
0.1545853989554275,0.15318260217678048
0.170814062774563,0.1700622627957349
0.16908681093368685,0.16884312216709116
0.16002578934798722,0.15991813607833694
0.14629245304793947,0.14561118349382637
0.1171751900910187,0.11628702416820264
0.06891011527919612,0.0692927047861071
0.024050659630234908,0.02493731209306474
-0.003930156911494804,-0.0027086968455303085
-0.002061014000381929,-0.00012574985518536158
0.04174850787626854,0.042483933338829834
0.10162657502371869,0.10050254810030623
0.14419896460051662,0.14329158870027384
0.16890005739907657,0.16836932008238162
0.18325619157495937,0.18316292466343148
0.19316155179537237,0.19287891400513524
0.19547511925878852,0.19430207585426315
0.16970269916997335,0.16825484953214614
0.10887870650844095,0.10911902249292253
0.04618323439850309,0.04712418983320514
0.004086274434589088,0.005228482144699886
-0.007811382654881396,-0.005869144601775112
0.02449618597142846,0.025321998594326406
0.0804275450438905,0.07967871397839428
0.12544804698766693,0.12441521025607469
0.1493352728750878,0.1490953465689283
0.16465361104763254,0.16405429645498795
0.16784689388417404,0.16750856981485715
0.16254017522410988,0.16212634970025092
0.14414350856145852,0.14274431350803057
0.09698644509162485,0.09675873422485669
0.04361446231344161,0.04451131697183401
0.005853792467786644,0.0067429743886918015
-0.013665874258872737,-0.01309341155954961
-0.020550876042413027,-0.020256318158173376
-0.020328936482572682,-0.020194174887224046
-0.016729679673214565,-0.016708165149401585
-0.012145237661845417,-0.012181696315286648
-0.007963379011748387,-0.008020839001636955
-0.004772183025972823,-0.0048178365874840265
-0.002637555931360353,-0.0026730273349387657
-0.0013561334311432238,-0.0013835877777442131
-0.0006503439481002637,-0.0006669155672249414
-0.0002856651191465474,-0.0002962030272032964
0.00019863785659868767,0.000744173307099247
0.014425893016261003,0.01580434458313012
0.059621172230151724,0.06009696508442089
0.11924776912650055,0.1180265289526108
0.15896156469809786,0.15796188878856995
0.1772639410079515,0.17676430454730235
0.18336663488818825,0.18295378293184084
0.1794189257450257,0.17911174631121532
0.16620901269451188,0.16538046005763435
0.13235393556790395,0.13156916000946664
0.07774765253849579,0.07800479733006423
0.02785307048261551,0.028665695929317017
-0.003428147532250539,-0.0025458208049539324
-0.012943810362336137,-0.011317925565138021
0.014599623819811409,0.015804684849709476
0.0722594011129,0.07200605379019846
0.12631784178207842,0.12524459949730102
0.15686607348399162,0.15579515693400664
0.16376985562224694,0.16321280752230913
0.15772603081594197,0.157810026899225
0.15187700622383715,0.15167495766827507
0.13850962031694472,0.13720376437526988
0.09772194098688039,0.0974972710760779
0.04688179658581448,0.04766611822077854
0.008992776621369871,0.009860947201448686
-0.01125128745055319,-0.010399656456921837
-0.007847099551394841,-0.005980048982066142
0.03563499553996949,0.035925575564382445
0.09183803094322301,0.090842875495699
0.13196753062762862,0.13108008873356186
0.15344607256869272,0.1526840050223021
0.15827851061117829,0.15821985949973447
0.15993676724247938,0.1598539041615854
0.1597677507799913,0.15905418943178828
0.14118480219270232,0.13996665397678776
0.09390982529231376,0.09374164416775443
0.04183426128269354,0.04253950999871311
0.005497755778462541,0.006614308644570155
-0.0042572887763837886,-0.002501424230486228
0.0281064224269113,0.02933421934325514
0.08996799244618883,0.08924851545130916
0.13817714086010738,0.13702620048395564
0.16043455128598283,0.1597967888561976
0.1679458421060464,0.16762584424563887
0.16727205718175192,0.1670849275491386
0.16304391455463585,0.1628545836755553
0.15050129309219093,0.1489568258173462
0.10567205619034935,0.10544867082128202
0.05008027349531763,0.050963032476566666
0.009238734572124697,0.010210317755676736
-0.009364781840098518,-0.007758355596779348
0.007091943619768158,0.008278252795640676
0.051075978472216316,0.05082940840236269
0.09504134679442099,0.09462311637838693
0.1328740515369034,0.13264674342943103
0.1659163206723718,0.164973690308621
0.1795690224209411,0.17892923172476666
0.17844524268352863,0.17809584193450956
0.16433422421981342,0.16298012370536757
0.11956224620119664,0.11918674646114706
0.060931628448290934,0.06156022770578772
0.015379742318661134,0.016293657902778
-0.006257875786159803,-0.004211203000918946
0.019230033369889637,0.02056939228000115
0.07962780435293117,0.07900324016583389
0.1321999774506797,0.13110748136517295
0.16078533694163308,0.15988967377991622
0.16827373807464494,0.16796960939115113
0.16822559513536312,0.16822736026316346
0.16739089310481908,0.1670594284783965
0.1552020091063671,0.15365360247904056
0.11119540001967272,0.11068404968457675
0.05467864848709892,0.05552691175199322
0.011886353454325422,0.012868557518697801
-0.008878022949228358,-0.007222948639531761
0.007642935607434385,0.009661627082041492
0.06545847090563311,0.0652320957577451
0.12161251251616614,0.12037202393598247
0.15368632996720455,0.15283588402109388
0.16843484524366906,0.1680156134937509
0.173483877608753,0.17325144920480456
0.17336612120925557,0.17316293070167368
0.1643994911891998,0.16292908421155666
0.12285410690614938,0.12232509294900128
0.06417024281731677,0.06495714733665468
0.017355825393469266,0.01826647522783888
-0.00676959608098786,-0.005161056854389085
0.00656627822575108,0.008049270054309008
0.05605090881617885,0.05609507989702653
0.11389706129352056,0.11321834092707868
0.1593141471186113,0.1580112780851322
0.1762656555232664,0.17539743975719183
0.17211085718212113,0.17197424446112908
0.16331278247670195,0.1633296660873488
0.1502577867688627,0.14904419346140715
0.11025624905283886,0.10963089409808563
0.05606867307441741,0.05661686725072498
0.013472037042934,0.014438207938598669
-0.007541909291859649,-0.005748599291939951
0.010737186945168866,0.011952868292826303
0.0599208397528596,0.059582860819736065
0.10391892712099335,0.10309435433826256
0.12968581464696635,0.12930667355316197
0.1479738632345034,0.14805485455385073
0.1669772194489004,0.1663566057622928
0.17499592690859794,0.1743947075836711
0.16545362039578745,0.16393557963443026
0.12311180265178222,0.12263375281998527
0.06475171767715335,0.0655330795278668
0.018260923727073806,0.019264863309446555
-0.008360897849906295,-0.00770840526919447
-0.01959952183362933,-0.01922502068962336
-0.02158511344549599,-0.021393548508591185
-0.018798181649775172,-0.018741217191679364
-0.014197147628980477,-0.014218622015090328
-0.009605613772604178,-0.009646037027852127
-0.005917651540665811,-0.005964211058382146
-0.0033500349320036427,-0.0033990203065011777
-0.0017611082742241462,-0.0017944830071688297
-0.0008640128709597572,-0.0008843687437852243
-0.0003932541629306569,-0.0004040121375827562
-0.00016037559307135272,-8.818305514881693e-05
0.0052909460820788025,0.006542965062767166
0.0386723821056829,0.039244232598700995
0.08846167553378942,0.08757621131051961
0.12426402874631248,0.12361545518461235
0.14478314422848693,0.14439508487010516
0.15708756001960372,0.15705329361739115
0.16960462144842645,0.16960118791383852
0.18116689194049915,0.18037144983724318
0.1727685186323028,0.1710270450316347
0.12757397752498548,0.12692004046109132
0.06659620406642784,0.06744087757918503
0.018729813213999722,0.019814426927097797
-0.004259115399215263,-0.0022920822104766023
0.014563468815279817,0.015661559786309127
0.058432234507809516,0.05824098097370273
0.0958965370883853,0.09534301068806528
0.12012928517156843,0.11967451522404599
0.13600712565770182,0.13589595660994852
0.15027506553994385,0.15013839185463837
0.15989657166856966,0.1589898063754994
0.1473159430161507,0.14588990320701803
0.10344813009137048,0.10328901165039935
0.05053650450534733,0.05135334225091486
0.011248350499524046,0.012025984277384298
-0.010210257348786304,-0.009679533401716347
-0.01867902071525054,-0.018349870626313977
-0.019513947562536785,-0.019355628685957835
-0.016527223680560393,-0.016476299055517427
-0.012228903418290683,-0.012256472525676073
-0.008133751420571747,-0.008187211080670874
